G70*
%FSLAX55Y55*%
%ADD11C,0.00100*%
%ADD12C,0.00500*%
%ADD13C,0.01000*%
D11*
X594884Y945701D02*
X804884Y945701D01*
X804884Y1050701*
X594884Y1050701*
X594884Y945701*
X604884Y949750D02*
G75*
G02X604884Y959750I00000J05000D01*
G02X604884Y949750I00000J-05000*
G01X604884Y1034750D02*
G75*
G02X604884Y1044750I00000J05000D01*
G02X604884Y1034750I00000J-05000*
G01X794884Y1034750D02*
G75*
G02X794884Y1044750I00000J05000D01*
G02X794884Y1034750I00000J-05000*
G01X794884Y949750D02*
G75*
G02X794884Y959750I00000J05000D01*
G02X794884Y949750I00000J-05000*
D12*
G01X1025364Y1017250D02*
X1025364Y970250D01*
X975369Y1017250D02*
X975369Y970250D01*
X905377Y1017250D02*
X905377Y970250D01*
X867881Y1017250D02*
X867881Y970250D01*
X832884Y1017500D02*
X1057861Y1017500D01*
X832884Y1008000D02*
X1057861Y1008000D01*
X832884Y998500D02*
X1057861Y998500D01*
X832884Y989000D02*
X1057861Y989000D01*
X832884Y979500D02*
X1057861Y979500D01*
X832634Y970000D02*
X832634Y1025937D01*
X1058111Y1025937*
X1058111Y970000*
X832634Y970000*
D13*
X1029114Y1009500D02*
X1032447Y1010958*
X1032030Y1010542D01*
X1029530Y1010542*
X1029114Y1010958*
X1029114Y1014083*
X1029530Y1014500*
X1032030Y1014500*
X1032447Y1014083*
X1036613Y1012625D02*
X1036196Y1013042D01*
X1034530Y1013042*
X1034113Y1012625*
X1034113Y1010958*
X1034530Y1010542*
X1036196Y1010542*
X1036613Y1010958*
X1036613Y1012625*
X1039113Y1013042D02*
X1039113Y1010958D01*
X1039529Y1010542*
X1041196Y1010542*
X1041613Y1010958*
X1041613Y1010542D02*
X1041613Y1013042D01*
X1044112Y1010542D02*
X1044112Y1013042D01*
X1044112Y1012625D02*
X1044529Y1013042D01*
X1046195Y1013042*
X1046612Y1012625*
X1046612Y1010542*
X1050570Y1014500D02*
X1050570Y1010958D01*
X1050986Y1010542*
X1051403Y1010542*
X1049945Y1013042D02*
X1051195Y1013042D01*
X1046612Y1000000D02*
X1047341Y1001042*
X1047341Y1005000D01*
X1046924Y1004167*
X1049111Y1004583D02*
X1049528Y1005000D01*
X1051611Y1005000*
X1052028Y1004583*
X1052028Y1003542*
X1051611Y1003125*
X1050361Y1003125*
X1051611Y1003125*
X1052028Y1002708*
X1052028Y1001667*
X1051611Y1001042*
X1049528Y1001042*
X1049111Y1001458*
X1049111Y990500D02*
X1051195Y991542*
X1051195Y995500D01*
X1049111Y993000*
X1052028Y993000*
X1046612Y981000D02*
X1047341Y982042*
X1047341Y986000D01*
X1046924Y985167*
X1049111Y985583D02*
X1049528Y986000D01*
X1051611Y986000*
X1052028Y985583*
X1052028Y984750*
X1051611Y984333*
X1049111Y982042*
X1052028Y982042*
X1049111Y971500D02*
X1049111Y974417*
X1049528Y974833D01*
X1051611Y974833*
X1052028Y974417*
X1052028Y972958*
X1051611Y972542*
X1049528Y972542*
X1049111Y972958*
X1049111Y976083*
X1049528Y976500*
X1051611Y976500*
X1052028Y976083*
X991618Y1009500D02*
X994534Y1010542*
X991618Y1010542D01*
X991618Y1014500*
X996617Y1011792D02*
X999117Y1011792D01*
X999117Y1012625*
X998700Y1013042*
X997034Y1013042*
X996617Y1012625*
X996617Y1010958*
X997034Y1010542*
X998700Y1010542*
X999117Y1010958*
X1003075Y1014500D02*
X1003075Y1010958D01*
X1003491Y1010542*
X1003908Y1010542*
X1002450Y1013042D02*
X1003700Y1013042D01*
X1008074Y1014500D02*
X1008074Y1010958D01*
X1008491Y1010542*
X1008907Y1010542*
X1007449Y1013042D02*
X1008699Y1013042D01*
X1011615Y1011792D02*
X1014115Y1011792D01*
X1014115Y1012625*
X1013698Y1013042*
X1012032Y1013042*
X1011615Y1012625*
X1011615Y1010958*
X1012032Y1010542*
X1013698Y1010542*
X1014115Y1010958*
X1016614Y1010542D02*
X1016614Y1013042D01*
X1016614Y1012625D02*
X1017031Y1013042D01*
X1018281Y1013042*
X1018698Y1012625*
X1016614Y1000000D02*
X1016614Y1005000*
X1017656Y1001042D01*
X1018698Y1005000*
X1019739Y1001042*
X1020781Y1005000*
X1016614Y990500D02*
X1016614Y991542*
X1019948Y995500D01*
X1016614Y995500D02*
X1019948Y991542D01*
X1016614Y981000D02*
X1016614Y986000*
X1018281Y984125D01*
X1019948Y986000*
X1018281Y984125D02*
X1018281Y982042D01*
X979119Y971500D02*
X979119Y975042*
X979119Y972958D01*
X979536Y972542*
X981202Y972542*
X981619Y972958*
X981619Y972542D02*
X981619Y975042D01*
X984119Y972542D02*
X984119Y975042D01*
X984119Y974625D02*
X984535Y975042D01*
X986202Y975042*
X986619Y974625*
X986619Y972542*
X991618Y974625D02*
X991201Y975042D01*
X989535Y975042*
X989118Y974625*
X989118Y972958*
X989535Y972542*
X991201Y972542*
X991618Y972958*
X991618Y972542D02*
X991618Y976500D01*
X994117Y973792D02*
X996617Y973792D01*
X996617Y974625*
X996201Y975042*
X994534Y975042*
X994117Y974625*
X994117Y972958*
X994534Y972542*
X996201Y972542*
X996617Y972958*
X1000367Y972542D02*
X1000367Y976083D01*
X1000783Y976500*
X1001200Y976500*
X999742Y975042D02*
X1000992Y975042D01*
X1004949Y972542D02*
X1004949Y974833D01*
X1004949Y976292D02*
X1004949Y976500D01*
X1004741Y972542D02*
X1005158Y972542D01*
X1006616Y972542D02*
X1006616Y975042D01*
X1006616Y974625D02*
X1007032Y975042D01*
X1008699Y975042*
X1009116Y974625*
X1009116Y972542*
X1011615Y973792D02*
X1014115Y973792D01*
X1014115Y974625*
X1013698Y975042*
X1012032Y975042*
X1011615Y974625*
X1011615Y972958*
X1012032Y972542*
X1013698Y972542*
X1014115Y972958*
X1019114Y974625D02*
X1018698Y975042D01*
X1017031Y975042*
X1016614Y974625*
X1016614Y972958*
X1017031Y972542*
X1018698Y972542*
X1019114Y972958*
X1019114Y972542D02*
X1019114Y976500D01*
X909127Y1009500D02*
X909127Y1010542*
X909127Y1014500D01*
X912044Y1014500*
X912460Y1014083*
X912460Y1013042*
X912044Y1012625*
X909127Y1012625*
X914856Y1014500D02*
X914856Y1010958D01*
X915064Y1010542*
X915272Y1010542*
X916626Y1012625D02*
X917043Y1013042D01*
X918709Y1013042*
X919126Y1012625*
X919126Y1010542*
X919126Y1010958D02*
X919126Y1010542D01*
X917043Y1010542*
X916626Y1010958*
X916626Y1011375*
X917043Y1011792*
X919126Y1011792*
X923084Y1014500D02*
X923084Y1010958D01*
X923500Y1010542*
X923917Y1010542*
X922459Y1013042D02*
X923709Y1013042D01*
X926625Y1011792D02*
X929125Y1011792D01*
X929125Y1012625*
X928708Y1013042*
X927041Y1013042*
X926625Y1012625*
X926625Y1010958*
X927041Y1010542*
X928708Y1010542*
X929125Y1010958*
X934958Y1009500D02*
X936624Y1014500*
X939957Y1014500D01*
X938290Y1014500D02*
X938290Y1010542D01*
X941623Y1010542D02*
X941623Y1014500D01*
X941623Y1012625D02*
X942040Y1013042D01*
X943706Y1013042*
X944123Y1012625*
X944123Y1010542*
X946622Y1010542D02*
X946622Y1013042D01*
X946622Y1012625D02*
X947039Y1013042D01*
X948289Y1013042*
X948706Y1012625*
X954122Y1012625D02*
X953705Y1013042D01*
X952038Y1013042*
X951622Y1012625*
X951622Y1010958*
X952038Y1010542*
X953705Y1010542*
X954122Y1010958*
X954122Y1012625*
X956621Y1013042D02*
X956621Y1010958D01*
X957038Y1010542*
X958704Y1010542*
X959121Y1010958*
X959121Y1010542D02*
X959121Y1013042D01*
X964120Y1012625D02*
X963704Y1013042D01*
X962037Y1013042*
X961620Y1012625*
X961620Y1011375*
X962037Y1010958*
X963704Y1010958*
X964120Y1011375*
X964120Y1013042D02*
X964120Y1009917D01*
X963704Y1009500*
X961620Y1009500*
X966620Y1010542D02*
X966620Y1014500D01*
X966620Y1012625D02*
X967036Y1013042D01*
X968703Y1013042*
X969120Y1012625*
X969120Y1010542*
X956621Y1000000D02*
X956621Y1005000*
X958288Y1003125D01*
X959954Y1005000*
X958288Y1003125D02*
X958288Y1001042D01*
X964537Y1001042D02*
X961620Y1001042D01*
X961620Y1005000*
X964537Y1005000*
X964537Y1003125D02*
X961620Y1003125D01*
X966620Y1001458D02*
X967036Y1001042D01*
X969120Y1001042*
X969536Y1001458*
X969536Y1002708*
X969120Y1003125*
X967036Y1003125*
X966620Y1003542*
X966620Y1004583*
X967036Y1005000*
X969120Y1005000*
X969536Y1004583*
X956621Y990500D02*
X956621Y995500*
X958288Y993625D01*
X959954Y995500*
X958288Y993625D02*
X958288Y991542D01*
X964537Y991542D02*
X961620Y991542D01*
X961620Y995500*
X964537Y995500*
X964537Y993625D02*
X961620Y993625D01*
X966620Y991958D02*
X967036Y991542D01*
X969120Y991542*
X969536Y991958*
X969536Y993208*
X969120Y993625*
X967036Y993625*
X966620Y994042*
X966620Y995083*
X967036Y995500*
X969120Y995500*
X969536Y995083*
X956621Y981000D02*
X956621Y986000*
X958288Y984125D01*
X959954Y986000*
X958288Y984125D02*
X958288Y982042D01*
X964537Y982042D02*
X961620Y982042D01*
X961620Y986000*
X964537Y986000*
X964537Y984125D02*
X961620Y984125D01*
X966620Y982458D02*
X967036Y982042D01*
X969120Y982042*
X969536Y982458*
X969536Y983708*
X969120Y984125*
X967036Y984125*
X966620Y984542*
X966620Y985583*
X967036Y986000*
X969120Y986000*
X969536Y985583*
X956621Y971500D02*
X956621Y976500*
X958288Y974625D01*
X959954Y976500*
X958288Y974625D02*
X958288Y972542D01*
X964537Y972542D02*
X961620Y972542D01*
X961620Y976500*
X964537Y976500*
X964537Y974625D02*
X961620Y974625D01*
X966620Y972958D02*
X967036Y972542D01*
X969120Y972542*
X969536Y972958*
X969536Y974208*
X969120Y974625*
X967036Y974625*
X966620Y975042*
X966620Y976083*
X967036Y976500*
X969120Y976500*
X969536Y976083*
X871631Y1009500D02*
X874547Y1010542*
X871631Y1010542D01*
X871631Y1014500*
X876630Y1011792D02*
X879130Y1011792D01*
X879130Y1012625*
X878714Y1013042*
X877047Y1013042*
X876630Y1012625*
X876630Y1010958*
X877047Y1010542*
X878714Y1010542*
X879130Y1010958*
X881630Y1010542D02*
X881630Y1013042D01*
X881630Y1012625D02*
X882046Y1013042D01*
X883713Y1013042*
X884130Y1012625*
X884130Y1010542*
X889129Y1012625D02*
X888712Y1013042D01*
X887046Y1013042*
X886629Y1012625*
X886629Y1011375*
X887046Y1010958*
X888712Y1010958*
X889129Y1011375*
X889129Y1013042D02*
X889129Y1009917D01*
X888712Y1009500*
X886629Y1009500*
X893087Y1014500D02*
X893087Y1010958D01*
X893503Y1010542*
X893920Y1010542*
X892462Y1013042D02*
X893712Y1013042D01*
X896628Y1010542D02*
X896628Y1014500D01*
X896628Y1012625D02*
X897044Y1013042D01*
X898711Y1013042*
X899128Y1012625*
X899128Y1010542*
X884129Y1000000D02*
X887046Y1001458*
X886629Y1001042D01*
X884546Y1001042*
X884129Y1001458*
X884129Y1004583*
X884546Y1005000*
X886629Y1005000*
X887046Y1004583*
X887046Y1001458*
X884129Y1001458D02*
X887046Y1004583D01*
X889754Y1001042D02*
X889649Y1001042D01*
X889649Y1001250*
X889754Y1001250*
X889754Y1001042*
X894545Y1001458D02*
X894128Y1001042D01*
X892045Y1001042*
X891628Y1001458*
X891628Y1004583*
X892045Y1005000*
X894128Y1005000*
X894545Y1004583*
X894545Y1001458*
X891628Y1001458D02*
X894545Y1004583D01*
X899544Y1001458D02*
X899128Y1001042D01*
X897044Y1001042*
X896628Y1001458*
X896628Y1004583*
X897044Y1005000*
X899128Y1005000*
X899544Y1004583*
X899544Y1001458*
X896628Y1001458D02*
X899544Y1004583D01*
X884129Y990500D02*
X887046Y991958*
X886629Y991542D01*
X884546Y991542*
X884129Y991958*
X884129Y995083*
X884546Y995500*
X886629Y995500*
X887046Y995083*
X887046Y991958*
X884129Y991958D02*
X887046Y995083D01*
X889754Y991542D02*
X889649Y991542D01*
X889649Y991750*
X889754Y991750*
X889754Y991542*
X894545Y991958D02*
X894128Y991542D01*
X892045Y991542*
X891628Y991958*
X891628Y995083*
X892045Y995500*
X894128Y995500*
X894545Y995083*
X894545Y991958*
X891628Y991958D02*
X894545Y995083D01*
X899544Y991958D02*
X899128Y991542D01*
X897044Y991542*
X896628Y991958*
X896628Y995083*
X897044Y995500*
X899128Y995500*
X899544Y995083*
X899544Y991958*
X896628Y991958D02*
X899544Y995083D01*
X884129Y981000D02*
X887046Y982458*
X886629Y982042D01*
X884546Y982042*
X884129Y982458*
X884129Y985583*
X884546Y986000*
X886629Y986000*
X887046Y985583*
X887046Y982458*
X884129Y982458D02*
X887046Y985583D01*
X889754Y982042D02*
X889649Y982042D01*
X889649Y982250*
X889754Y982250*
X889754Y982042*
X894545Y982458D02*
X894128Y982042D01*
X892045Y982042*
X891628Y982458*
X891628Y985583*
X892045Y986000*
X894128Y986000*
X894545Y985583*
X894545Y982458*
X891628Y982458D02*
X894545Y985583D01*
X899544Y982458D02*
X899128Y982042D01*
X897044Y982042*
X896628Y982458*
X896628Y985583*
X897044Y986000*
X899128Y986000*
X899544Y985583*
X899544Y982458*
X896628Y982458D02*
X899544Y985583D01*
X884129Y971500D02*
X887046Y972958*
X886629Y972542D01*
X884546Y972542*
X884129Y972958*
X884129Y976083*
X884546Y976500*
X886629Y976500*
X887046Y976083*
X887046Y972958*
X884129Y972958D02*
X887046Y976083D01*
X889754Y972542D02*
X889649Y972542D01*
X889649Y972750*
X889754Y972750*
X889754Y972542*
X894545Y972958D02*
X894128Y972542D01*
X892045Y972542*
X891628Y972958*
X891628Y976083*
X892045Y976500*
X894128Y976500*
X894545Y976083*
X894545Y972958*
X891628Y972958D02*
X894545Y976083D01*
X899544Y972958D02*
X899128Y972542D01*
X897044Y972542*
X896628Y972958*
X896628Y976083*
X897044Y976500*
X899128Y976500*
X899544Y976083*
X899544Y972958*
X896628Y972958D02*
X899544Y976083D01*
X846633Y1009500D02*
X846633Y1010958*
X847050Y1010542D01*
X849133Y1010542*
X849550Y1010958*
X849550Y1012208*
X849133Y1012625*
X847050Y1012625*
X846633Y1013042*
X846633Y1014083*
X847050Y1014500*
X849133Y1014500*
X849550Y1014083*
X852466Y1010542D02*
X852466Y1012833D01*
X852466Y1014292D02*
X852466Y1014500D01*
X852257Y1010542D02*
X852674Y1010542D01*
X854132Y1013042D02*
X856632Y1013042D01*
X854132Y1010542*
X856632Y1010542*
X859131Y1011792D02*
X861631Y1011792D01*
X861631Y1012625*
X861215Y1013042*
X859548Y1013042*
X859131Y1012625*
X859131Y1010958*
X859548Y1010542*
X861215Y1010542*
X861631Y1010958*
X841634Y1000000D02*
X844550Y1001458*
X844134Y1001042D01*
X842050Y1001042*
X841634Y1001458*
X841634Y1004583*
X842050Y1005000*
X844134Y1005000*
X844550Y1004583*
X844550Y1001458*
X841634Y1001458D02*
X844550Y1004583D01*
X847258Y1001042D02*
X847154Y1001042D01*
X847154Y1001250*
X847258Y1001250*
X847258Y1001042*
X849133Y1005000D02*
X852049Y1005000D01*
X849549Y1001042*
X854861Y1001042D02*
X854861Y1005000D01*
X854445Y1004167*
X857361Y1001042D02*
X857361Y1005000D01*
X856944Y1004167*
X859131Y1004583D02*
X859548Y1005000D01*
X861631Y1005000*
X862048Y1004583*
X862048Y1003750*
X861631Y1003333*
X859131Y1001042*
X862048Y1001042*
X839134Y990500D02*
X842051Y991958*
X841634Y991542D01*
X839551Y991542*
X839134Y991958*
X839134Y995083*
X839551Y995500*
X841634Y995500*
X842051Y995083*
X842051Y991958*
X839134Y991958D02*
X842051Y995083D01*
X844758Y991542D02*
X844654Y991542D01*
X844654Y991750*
X844758Y991750*
X844758Y991542*
X846633Y991958D02*
X846633Y993208D01*
X847050Y993625*
X849133Y993625*
X849550Y994042*
X849550Y995083*
X849133Y995500*
X847050Y995500*
X846633Y995083*
X846633Y994042*
X847050Y993625*
X849133Y993625*
X849550Y993208*
X849550Y991958*
X849133Y991542*
X847050Y991542*
X846633Y991958*
X852362Y991542D02*
X852362Y995500D01*
X851945Y994667*
X854132Y995083D02*
X854549Y995500D01*
X856632Y995500*
X857049Y995083*
X857049Y994250*
X856632Y993833*
X854132Y991542*
X857049Y991542*
X859131Y991958D02*
X859131Y993208D01*
X859548Y993625*
X861631Y993625*
X862048Y994042*
X862048Y995083*
X861631Y995500*
X859548Y995500*
X859131Y995083*
X859131Y994042*
X859548Y993625*
X861631Y993625*
X862048Y993208*
X862048Y991958*
X861631Y991542*
X859548Y991542*
X859131Y991958*
X836634Y981000D02*
X839551Y982458*
X839134Y982042D01*
X837051Y982042*
X836634Y982458*
X836634Y985583*
X837051Y986000*
X839134Y986000*
X839551Y985583*
X839551Y982458*
X836634Y982458D02*
X839551Y985583D01*
X842259Y982042D02*
X842154Y982042D01*
X842154Y982250*
X842259Y982250*
X842259Y982042*
X847050Y984333D02*
X846633Y983917D01*
X844342Y983917*
X844133Y984333*
X844133Y985583*
X844550Y986000*
X846633Y986000*
X847050Y985583*
X847050Y982458*
X846633Y982042*
X844550Y982042*
X844133Y982458*
X852049Y984333D02*
X851633Y983917D01*
X849341Y983917*
X849133Y984333*
X849133Y985583*
X849549Y986000*
X851633Y986000*
X852049Y985583*
X852049Y982458*
X851633Y982042*
X849549Y982042*
X849133Y982458*
X857049Y982458D02*
X856632Y982042D01*
X854549Y982042*
X854132Y982458*
X854132Y985583*
X854549Y986000*
X856632Y986000*
X857049Y985583*
X857049Y982458*
X854132Y982458D02*
X857049Y985583D01*
X859131Y983917D02*
X859548Y984333D01*
X861631Y984333*
X862048Y983917*
X862048Y982458*
X861631Y982042*
X859548Y982042*
X859131Y982458*
X859131Y985583*
X859548Y986000*
X861631Y986000*
X862048Y985583*
X849133Y971500D02*
X849862Y972542*
X849862Y976500D01*
X849445Y975667*
X852257Y972542D02*
X852153Y972542D01*
X852153Y972750*
X852257Y972750*
X852257Y972542*
X857049Y972958D02*
X856632Y972542D01*
X854549Y972542*
X854132Y972958*
X854132Y976083*
X854549Y976500*
X856632Y976500*
X857049Y976083*
X857049Y972958*
X854132Y972958D02*
X857049Y976083D01*
X862048Y972958D02*
X861631Y972542D01*
X859548Y972542*
X859131Y972958*
X859131Y976083*
X859548Y976500*
X861631Y976500*
X862048Y976083*
X862048Y972958*
X859131Y972958D02*
X862048Y976083D01*
X922875Y1019000D02*
X922875Y1024000*
X924959Y1024000D01*
X925792Y1023583*
X926209Y1022750*
X926209Y1021292*
X925792Y1020458*
X924959Y1020042*
X922875Y1020042*
X923709Y1020042D02*
X923709Y1024000D01*
X927875Y1020042D02*
X927875Y1022542D01*
X927875Y1022125D02*
X928291Y1022542D01*
X929541Y1022542*
X929958Y1022125*
X933707Y1020042D02*
X933707Y1022333D01*
X933707Y1023792D02*
X933707Y1024000D01*
X933499Y1020042D02*
X933916Y1020042D01*
X936103Y1024000D02*
X936103Y1020458D01*
X936311Y1020042*
X936520Y1020042*
X938603Y1024000D02*
X938603Y1020458D01*
X938811Y1020042*
X939019Y1020042*
X943706Y1019000D02*
X945372Y1024000*
X948706Y1024000D01*
X947039Y1024000D02*
X947039Y1020042D01*
X950372Y1022125D02*
X950789Y1022542D01*
X952455Y1022542*
X952872Y1022125*
X952872Y1020042*
X952872Y1020458D02*
X952872Y1020042D01*
X950789Y1020042*
X950372Y1020458*
X950372Y1020875*
X950789Y1021292*
X952872Y1021292*
X955371Y1020042D02*
X955371Y1024000D01*
X955371Y1022125D02*
X955788Y1022542D01*
X957455Y1022542*
X957871Y1022125*
X957871Y1020458*
X957455Y1020042*
X955788Y1020042*
X955371Y1020458*
X961100Y1024000D02*
X961100Y1020458D01*
X961308Y1020042*
X961516Y1020042*
X962870Y1021292D02*
X965370Y1021292D01*
X965370Y1022125*
X964954Y1022542*
X963287Y1022542*
X962870Y1022125*
X962870Y1020458*
X963287Y1020042*
X964954Y1020042*
X965370Y1020458*
D12*
X594884Y1072250D02*
X678699Y1072250D01*
X720069Y1072250D02*
X804884Y1072250D01*
X594884Y1072250D02*
X598584Y1070903D01*
X594884Y1072250D02*
X598584Y1073597D01*
X804884Y1072250D02*
X801185Y1073597D01*
X804884Y1072250D02*
X801185Y1070903D01*
X594884Y1054638D02*
X594884Y1076187D01*
X804884Y1054638D02*
X804884Y1076187D01*
D13*
X683136Y1069250D02*
X683136Y1070708*
X683553Y1070292D01*
X685636Y1070292*
X686053Y1070708*
X686053Y1072167*
X685636Y1072583*
X683553Y1072583*
X683136Y1072167*
X683136Y1074250*
X686053Y1074250*
X688136Y1073833D02*
X688552Y1074250D01*
X690636Y1074250*
X691052Y1073833*
X691052Y1072792*
X690636Y1072375*
X689386Y1072375*
X690636Y1072375*
X691052Y1071958*
X691052Y1070917*
X690636Y1070292*
X688552Y1070292*
X688136Y1070708*
X693760Y1070292D02*
X693656Y1070292D01*
X693656Y1070500*
X693760Y1070500*
X693760Y1070292*
X695635Y1073833D02*
X696051Y1074250D01*
X698135Y1074250*
X698551Y1073833*
X698551Y1072792*
X698135Y1072375*
X696885Y1072375*
X698135Y1072375*
X698551Y1071958*
X698551Y1070917*
X698135Y1070292*
X696051Y1070292*
X695635Y1070708*
X702717Y1070292D02*
X702717Y1074250D01*
X700634Y1071750*
X703551Y1071750*
X705634Y1070292D02*
X705634Y1072792D01*
X705634Y1072375D02*
X706050Y1072792D01*
X706884Y1072792*
X707300Y1072375*
X707300Y1070292*
X707300Y1072375D02*
X707717Y1072792D01*
X708550Y1072792*
X708967Y1072375*
X708967Y1070292*
X710633Y1070292D02*
X710633Y1072792D01*
X710633Y1072375D02*
X711050Y1072792D01*
X711883Y1072792*
X712300Y1072375*
X712300Y1070292*
X712300Y1072375D02*
X712716Y1072792D01*
X713550Y1072792*
X713966Y1072375*
X713966Y1070292*
D12*
X604884Y1057250D02*
X678699Y1057250D01*
X720069Y1057250D02*
X794884Y1057250D01*
X604884Y1057250D02*
X608584Y1055903D01*
X604884Y1057250D02*
X608584Y1058597D01*
X794884Y1057250D02*
X791185Y1058597D01*
X794884Y1057250D02*
X791185Y1055903D01*
X604884Y1043687D02*
X604884Y1061187D01*
X794884Y1043687D02*
X794884Y1061187D01*
D13*
X683136Y1054250D02*
X685220Y1055292*
X685220Y1059250D01*
X683136Y1056750*
X686053Y1056750*
X688136Y1055708D02*
X688136Y1056958D01*
X688552Y1057375*
X690636Y1057375*
X691052Y1057792*
X691052Y1058833*
X690636Y1059250*
X688552Y1059250*
X688136Y1058833*
X688136Y1057792*
X688552Y1057375*
X690636Y1057375*
X691052Y1056958*
X691052Y1055708*
X690636Y1055292*
X688552Y1055292*
X688136Y1055708*
X693760Y1055292D02*
X693656Y1055292D01*
X693656Y1055500*
X693760Y1055500*
X693760Y1055292*
X695635Y1058833D02*
X696051Y1059250D01*
X698135Y1059250*
X698551Y1058833*
X698551Y1058000*
X698135Y1057583*
X695635Y1055292*
X698551Y1055292*
X700634Y1057167D02*
X701051Y1057583D01*
X703134Y1057583*
X703551Y1057167*
X703551Y1055708*
X703134Y1055292*
X701051Y1055292*
X700634Y1055708*
X700634Y1058833*
X701051Y1059250*
X703134Y1059250*
X703551Y1058833*
X705634Y1055292D02*
X705634Y1057792D01*
X705634Y1057375D02*
X706050Y1057792D01*
X706884Y1057792*
X707300Y1057375*
X707300Y1055292*
X707300Y1057375D02*
X707717Y1057792D01*
X708550Y1057792*
X708967Y1057375*
X708967Y1055292*
X710633Y1055292D02*
X710633Y1057792D01*
X710633Y1057375D02*
X711050Y1057792D01*
X711883Y1057792*
X712300Y1057375*
X712300Y1055292*
X712300Y1057375D02*
X712716Y1057792D01*
X713550Y1057792*
X713966Y1057375*
X713966Y1055292*
D12*
X587384Y954750D02*
X587384Y977315D01*
X587384Y1016185D02*
X587384Y1039750D01*
X587384Y954750D02*
X588731Y958450D01*
X587384Y954750D02*
X586038Y958450D01*
X587384Y1039750D02*
X586038Y1036050D01*
X587384Y1039750D02*
X588731Y1036050D01*
X600947Y954750D02*
X583447Y954750D01*
X600947Y1039750D02*
X583447Y1039750D01*
D13*
X590384Y981752D02*
X585801Y981752*
X585384Y982169D01*
X585384Y984252*
X585801Y984669*
X586634Y984669*
X587051Y984252*
X589343Y981752*
X589343Y984669*
X589343Y987480D02*
X585384Y987480D01*
X586218Y987064*
X589343Y989876D02*
X589343Y989772D01*
X589134Y989772*
X589134Y989876*
X589343Y989876*
X588926Y991751D02*
X589343Y992167D01*
X589343Y994251*
X588926Y994667*
X587468Y994667*
X587051Y994251*
X587051Y992167*
X587468Y991751*
X585384Y991751*
X585384Y994667*
X587051Y999667D02*
X587468Y999250D01*
X587468Y996958*
X587051Y996750*
X585801Y996750*
X585384Y997167*
X585384Y999250*
X585801Y999667*
X588926Y999667*
X589343Y999250*
X589343Y997167*
X588926Y996750*
X589343Y1001749D02*
X586843Y1001749D01*
X587259Y1001749D02*
X586843Y1002166D01*
X586843Y1002999*
X587259Y1003416*
X589343Y1003416*
X587259Y1003416D02*
X586843Y1003833D01*
X586843Y1004666*
X587259Y1005083*
X589343Y1005083*
X589343Y1006749D02*
X586843Y1006749D01*
X587259Y1006749D02*
X586843Y1007165D01*
X586843Y1007999*
X587259Y1008415*
X589343Y1008415*
X587259Y1008415D02*
X586843Y1008832D01*
X586843Y1009665*
X587259Y1010082*
X589343Y1010082*
D12*
X574884Y945701D02*
X574884Y977016D01*
X574884Y1018386D02*
X574884Y1050701D01*
X574884Y945701D02*
X576231Y949401D01*
X574884Y945701D02*
X573538Y949401D01*
X574884Y1050701D02*
X573538Y1047002D01*
X574884Y1050701D02*
X576231Y1047002D01*
X590947Y945701D02*
X570947Y945701D01*
X590947Y1050701D02*
X570947Y1050701D01*
D13*
X577884Y981453D02*
X573301Y981453*
X572884Y981870D01*
X572884Y983953*
X573301Y984370*
X574134Y984370*
X574551Y983953*
X576843Y981453*
X576843Y984370*
X574968Y986453D02*
X574551Y986869D01*
X574551Y988953*
X574968Y989369*
X576426Y989369*
X576843Y988953*
X576843Y986869*
X576426Y986453*
X573301Y986453*
X572884Y986869*
X572884Y988953*
X573301Y989369*
X576843Y992077D02*
X576843Y991973D01*
X576634Y991973*
X576634Y992077*
X576843Y992077*
X574968Y993952D02*
X574551Y994368D01*
X574551Y996452*
X574968Y996868*
X576426Y996868*
X576843Y996452*
X576843Y994368*
X576426Y993952*
X573301Y993952*
X572884Y994368*
X572884Y996452*
X573301Y996868*
X572884Y998951D02*
X572884Y1001868D01*
X576843Y999368*
X576843Y1003950D02*
X574343Y1003950D01*
X574759Y1003950D02*
X574343Y1004367D01*
X574343Y1005200*
X574759Y1005617*
X576843Y1005617*
X574759Y1005617D02*
X574343Y1006034D01*
X574343Y1006867*
X574759Y1007284*
X576843Y1007284*
X576843Y1008950D02*
X574343Y1008950D01*
X574759Y1008950D02*
X574343Y1009366D01*
X574343Y1010200*
X574759Y1010616*
X576843Y1010616*
X574759Y1010616D02*
X574343Y1011033D01*
X574343Y1011866*
X574759Y1012283*
X576843Y1012283*
D12*
X604884Y934750D02*
X616695Y934750D01*
X594884Y934750D02*
X583073Y934750D01*
X604884Y934750D02*
X608584Y933403D01*
X604884Y934750D02*
X608584Y936097D01*
X594884Y934750D02*
X591185Y936097D01*
X594884Y934750D02*
X591185Y933403D01*
X604884Y950813D02*
X604884Y930813D01*
X594884Y950813D02*
X594884Y930813D01*
D13*
X608584Y936097D02*
X608584Y940680*
X609001Y941097D01*
X611084Y941097*
X611501Y940680*
X611501Y939847*
X611084Y939430*
X608584Y937138*
X611501Y937138*
X614208Y937138D02*
X614104Y937138D01*
X614104Y937347*
X614208Y937347*
X614208Y937138*
X616083Y937555D02*
X616500Y937138D01*
X618583Y937138*
X619000Y937555*
X619000Y939013*
X618583Y939430*
X616500Y939430*
X616083Y939013*
X616083Y941097*
X619000Y941097*
X623166Y937138D02*
X623166Y941097D01*
X621082Y938597*
X623999Y938597*
X626082Y937138D02*
X626082Y939638D01*
X626082Y939222D02*
X626498Y939638D01*
X627332Y939638*
X627748Y939222*
X627748Y937138*
X627748Y939222D02*
X628165Y939638D01*
X628998Y939638*
X629415Y939222*
X629415Y937138*
X631081Y937138D02*
X631081Y939638D01*
X631081Y939222D02*
X631498Y939638D01*
X632331Y939638*
X632748Y939222*
X632748Y937138*
X632748Y939222D02*
X633164Y939638D01*
X633998Y939638*
X634414Y939222*
X634414Y937138*
M02*
